<svg width="20" height="22" viewBox="0 0 20 22" fill="none" xmlns="http://www.w3.org/2000/svg">
<path d="M11.7897 0.550324C10.3766 -0.310762 9.9729 -0.215003 10.3766 1.22027C10.7803 2.65555 10.4772 5.52572 8.66042 7.24789C8.66042 7.24789 7.6745 8.60726 7.75205 6.67369C7.80486 5.35882 7.52149 3.8095 6.75941 2.62059C6.25261 1.82944 5.22686 1.83421 4.72216 3.27863C4.21746 4.72304 3.63856 5.42994 2.21333 7.34364C0.788092 9.25734 -0.72685 12.4637 0.383157 15.6442C1.49316 18.8247 4.92505 21.7214 9.82031 21.9952C11.9867 22.1164 19.3585 19.9492 19.9646 13.1678C20.5708 6.38641 13.2023 1.41141 11.7897 0.550324ZM10.0433 19.6901C9.21417 18.9641 6.42909 16.5176 5.4658 15.5575C4.22123 14.313 3.587 13.0844 3.68048 12.0949C3.74336 11.4246 4.13907 10.8317 4.8563 10.3318C5.48508 9.89472 6.09877 9.72505 6.67264 9.72505C8.08195 9.72505 9.2477 10.7451 9.78678 11.3145L10.0383 11.5795L10.2982 11.3217C10.7291 10.8929 11.6052 10.1212 12.6297 9.76517C13.6173 9.42185 14.5001 9.55498 15.2534 10.1606C15.9601 10.7292 16.3483 11.4051 16.4066 12.1692C16.4791 13.1149 16.036 14.1561 15.1599 15.0966C14.4917 15.8135 10.9903 18.8668 10.0433 19.6901Z" fill="white"/>
</svg>
